%YAML 1.1
%TAG !u! tag:unity3d.com,2011:
--- !u!114 &11400000
MonoBehaviour:
  m_ObjectHideFlags: 0
  m_CorrespondingSourceObject: {fileID: 0}
  m_PrefabInstance: {fileID: 0}
  m_PrefabAsset: {fileID: 0}
  m_GameObject: {fileID: 0}
  m_Enabled: 1
  m_EditorHideFlags: 0
  m_Script: {fileID: 11500000, guid: a8ee7c90781d9b043b9c397764e95f07, type: 3}
  m_Name: HitStrong
  m_EditorClassIdentifier: 
  moveName: Strong Hit
  power: 20
  ppCost: 3
  effect: 0
  effectChance: 0
  animation: 
